{
    "page": 1,
    "per_page": 6,
    "total": 12,
    "total_pages": 2,
    "data": [
        {
            "name": 1,
            "link":"www.w3resorces.com"
        },
        {
           "name": 1,
            "link":"www.w3resorces.com"
        },
        {
          "name": 1,
            "link":"www.w3resorces.com"
        },
        {"name": 1,
            "link":"www.w3resorces.com"
        },
        {
            "name": 1,
            "link":"www.w3resorces.com"
        },
        {
            "name": 1,
            "link":"www.w3resorces.com"
        }
    ],
    "ad": {
        "company": "StatusCode Weekly",
        "url": "http://statuscode.org/",
        "text": "A weekly newsletter focusing on software development, infrastructure, the server, performance, and the stack end of things."
    }
}
